[
    {
        "id": 1,
        "nome": "Copagril UMM",
        "logo": "../img/copagril.svg"
    },
    {
        "id": 2,
        "nome": "Copagril DOIS",
        "logo": "../img/copagril.svg"
    },
    {
        "id": 3,
        "nome": "Copagril TRES",
        "logo": "../img/copagril.svg"
    },
    {
        "id": 4,
        "nome": "Copagril QUATRO",
        "logo": "../img/copagril.svg"
    },
    {
        "id": 5,
        "nome": "Copagril CINCO",
        "logo": "../img/copagril.svg"
    }

]